{
    "type": "select",
    "options": [
        {
            "label": "COUNT",
            "value": "COUNT"
        },
        {
            "label": "SUM",
            "value": "SUM"
        },
        {
            "label": "MIN",
            "value": "MIN"
        },        
        {
            "label": "MAX",
            "value": "MAX"
        },
        {
            "label": "AVERAGE",
            "value": "AVERAGE"
        }       
    ]
}
